^C:\USERS\LORDE\ONEDRIVE\РОБОЧИЙ СТІЛ\АЛГОРИТМИ(SELL2)\LAB06\TASK1,2(C)\TASK2(C).CPP
C:\USERS\LORDE\ONEDRIVE\Робочий стіл\Алгоритми(SELL2)\LAB06\TASK1,2(C)\X64\DEBUG\VC143.PDB
C:\USERS\LORDE\ONEDRIVE\Робочий стіл\Алгоритми(SELL2)\LAB06\TASK1,2(C)\X64\DEBUG\VC143.IDB
C:\USERS\LORDE\ONEDRIVE\Робочий стіл\Алгоритми(SELL2)\LAB06\TASK1,2(C)\X64\DEBUG\TASK2(C).OBJ
