^C:\USERS\LORDE\ONEDRIVE\РОБОЧИЙ СТІЛ\АЛГОРИТМИ(SELL)\LAB06\TASK1,2(A)\TASK1,2(A).CPP
C:\USERS\LORDE\ONEDRIVE\Робочий стіл\Алгоритми(SELL)\LAB06\TASK1,2(A)\X64\DEBUG\VC143.PDB
C:\USERS\LORDE\ONEDRIVE\Робочий стіл\Алгоритми(SELL)\LAB06\TASK1,2(A)\X64\DEBUG\VC143.IDB
C:\USERS\LORDE\ONEDRIVE\Робочий стіл\Алгоритми(SELL)\LAB06\TASK1,2(A)\X64\DEBUG\TASK1,2(A).OBJ
